,EdLevel,Age,Gender,YearsCodePro,WorkExp,ConvertedCompYearly
0,5,3,2,6,6,4088
1,6,4,1,10,14,16200
2,6,3,1,5,5,5417
3,5,3,1,5,5,9167
4,5,3,1,4,4,2844
5,0,4,1,20,23,8134
6,5,3,1,9,9,7554
7,5,4,1,14,14,10833
8,5,5,1,22,22,138637
9,6,6,1,21,21,8500
10,5,3,1,5,6,6938
11,2,2,1,3,3,5680
12,5,3,1,3,3,427
13,6,3,2,5,5,11250
14,1,6,1,25,28,8887
15,2,3,1,4,7,4266
16,6,3,1,3,3,3238
17,6,3,1,10,12,14167
18,6,3,1,7,7,8642
19,5,3,2,5,5,11750
20,6,3,1,3,3,4597
21,6,3,1,8,8,3892
22,6,3,2,2,2,5332
23,6,3,1,4,4,5531
24,5,5,1,20,20,2077
25,1,4,1,15,15,3234
26,6,2,1,2,5,5332
27,5,4,1,20,27,13333
28,5,3,1,10,10,7287
29,1,4,1,20,22,12500
30,6,3,1,7,7,5758
31,6,3,1,7,7,7917
32,6,3,1,8,9,7998
33,6,3,1,5,6,4774
34,5,3,1,5,9,5332
35,5,4,1,19,19,5332
36,5,3,2,5,5,13833
37,6,3,1,4,4,7667
38,6,4,1,6,7,11957
39,1,4,1,22,22,37500
40,5,3,1,1,1,6665
41,6,3,0,4,4,3979
42,6,3,1,5,10,7785
43,1,3,1,5,13,2917
44,1,3,1,8,8,3732
45,6,3,1,10,10,6544
46,5,4,1,20,20,6359
47,5,5,1,25,30,10833
48,2,4,1,12,12,2239
49,6,2,1,3,3,9167
50,1,5,1,28,28,500000
51,6,3,1,4,4,5531
52,5,3,2,4,5,6806
53,6,2,1,3,3,3775
54,2,3,1,12,15,1760
55,6,3,1,5,5,6507
56,6,3,1,5,5,8167
57,6,3,2,10,10,16441
58,1,4,1,15,15,8625
59,6,2,1,1,1,2928
60,6,3,1,12,12,1290
61,5,3,1,11,11,16667
62,6,3,1,7,7,75384
63,4,3,1,7,7,7678
64,6,3,2,3,3,3199
65,6,4,1,7,3,8887
66,6,4,1,15,15,11333
67,5,3,1,5,6,4502
68,6,4,1,18,18,11412
69,1,3,1,6,8,3469
70,5,3,1,7,7,9894
71,6,2,1,3,2,41461
72,7,4,1,10,10,56538
73,5,3,1,2,2,29860
74,6,2,1,3,3,9167
75,2,2,1,1,1,5833
76,6,3,1,5,5,4836
77,6,3,2,6,2,3732533
78,5,3,1,7,7,4444
79,5,3,1,4,4,4399
80,5,3,1,4,3,8333
81,7,3,1,10,10,10000
82,6,3,1,8,8,5026
83,6,4,1,9,11,8333
84,6,2,1,0.5,1,2303
85,6,2,1,5,1,6250
86,5,4,1,15,15,7110
87,6,4,1,14,14,12250
88,6,2,1,2,2,14333
89,6,3,1,7,7,4921
90,6,4,2,14,14,8417
91,7,4,1,9,17,10000
92,7,4,2,19,19,13333
93,6,3,2,4,4,14583
94,1,7,1,46,46,8333
95,5,4,1,20,20,5688
96,6,4,1,22,27,20833
97,1,2,1,3,3,6292
98,5,3,1,2,2,2313
99,6,3,1,11,9,16441
100,6,2,1,3,3,2303
101,6,2,1,2,3,3644
102,5,3,1,7,7,9527
103,6,3,1,3,3,687
104,6,3,1,7,7,8062
105,6,5,1,23,25,11667
106,2,4,1,25,25,10470
107,2,3,2,6,7,8071
108,6,2,1,2,1,3507
109,6,3,1,12,12,7820
110,6,3,1,2,2,5583
111,6,4,1,15,15,7192
112,6,4,1,18,18,26250
113,1,2,1,1,1,17774
114,2,3,1,3,3,2933
115,6,3,1,10,10,5993
116,5,3,1,7,10,5856
117,5,4,1,14,15,11713
118,5,3,1,4,5,3469
119,6,3,1,8,10,8667
120,6,4,1,10,25,17167
121,6,3,1,5,5,666667
122,6,4,1,3,15,3750
123,6,3,1,2,3,10833
124,1,3,1,10,10,19167
125,6,4,1,12,18,12917
126,3,3,1,5,5,3199
127,5,4,1,19,19,11517
128,2,5,1,24,24,6221
129,6,3,1,4,4,6282
130,1,3,1,10,10,6182
131,6,2,1,4,6,10833
132,6,2,1,1,1,6667
133,6,5,1,15,28,4444
134,6,4,1,21,21,4741
135,2,2,1,1,1,3732
136,5,3,1,0.5,1,8333
137,6,3,1,7,6,6250
138,6,3,1,3,3,3626
139,6,5,2,4,4,4266
140,5,3,1,3,8,10000
141,6,3,1,3,3,3825
142,4,5,1,32,31,14583
143,6,3,1,5,5,6307
144,6,3,1,11,11,12500
145,1,3,1,7,9,5079
146,1,4,1,14,14,10000
147,5,4,1,20,20,17500
148,6,3,1,4,4,9083
149,6,2,1,4,4,5833
150,6,3,1,19,19,6232
151,6,6,2,15,20,8000
152,1,2,1,2,2,4400
153,6,3,1,10,10,4188
154,6,4,1,22,23,13333
155,6,3,1,9,9,10333
156,5,3,1,12,12,10470
157,5,3,1,5,5,3732
158,6,4,1,20,20,17083
159,2,4,1,14,19,4479
160,6,3,1,6,7,4532
161,5,2,1,0.5,0,5776
162,5,3,1,5,5,4355
163,6,3,1,4,4,9267
164,6,2,0,1,2,6333
165,6,3,1,8,8,9583
166,7,2,1,8,9,16667
167,5,3,1,2,2,8604
168,7,2,1,3,3,3413
169,1,4,1,6,6,2666
170,6,3,2,3,9,8025
171,6,3,1,1,1,4799
172,6,3,1,12,12,10512
173,6,3,1,4,4,13167
174,6,3,0,9,9,29167
175,4,3,1,5,5,7500
176,6,4,1,10,10,2133
177,6,3,1,6,6,12500
178,4,5,1,25,28,10664
179,5,3,1,7,7,7703
180,6,3,1,5,5,3022
181,6,3,1,1,2,7418
182,1,3,1,8,9,10000
183,6,2,1,3,3,8376
184,5,3,1,6,6,11667
185,6,2,1,2,3,3519
186,5,4,1,11,12,26667
187,6,4,1,19,19,8846
188,4,6,1,39,40,6282
189,2,3,0,5,5,2035
190,6,2,1,1,1,518
191,6,4,1,17,17,13333
192,5,3,1,5,5,9167
193,6,3,1,4,4,5226
194,6,3,1,6,7,5332
195,6,3,1,6,6,25000
196,2,3,1,4,16,4417
197,5,4,0,10,10,9222
198,6,3,1,3,3,6000
199,6,3,1,3,3,5206
200,6,3,1,3,3,4167
201,5,3,1,9,9,8887
202,6,4,1,5,6,145000
203,6,5,1,27,28,4555
204,6,3,1,2,3,3199
205,5,3,1,4,4,5026
206,6,3,1,9,9,4188
207,1,3,1,6,6,4712
208,5,4,1,11,11,4177
209,6,3,1,1,3,16667
210,1,3,1,3,4,1094
211,6,3,1,2,2,1953
212,6,3,1,3,3,7500
213,8,3,1,3,4,659
214,6,3,1,2,5,5833
215,5,4,1,14,14,7167
216,1,3,1,9,9,8750
217,0,3,1,7,7,3999
218,6,3,1,2,2,6500
219,1,3,1,5,5,6043
220,6,4,1,22,22,15583
221,6,2,1,1,2,6528
222,1,3,1,10,10,6782
223,6,3,1,8,8,1953
224,6,3,1,11,11,17917
225,2,2,1,2,4,4230
226,5,3,0,6,3,3999
227,6,4,1,16,15,6806
228,5,3,1,14,14,14219
229,6,3,1,4,4,13531
230,5,4,1,14,14,5776
231,7,2,1,2,2,5336
232,6,3,0,1,1,4583
233,1,3,1,10,10,3466
234,5,3,1,6,6,7170
235,1,6,1,31,31,16667
236,6,3,1,5,5,1502
237,1,3,1,12,12,9167
238,1,2,1,7,8,5968
239,5,3,2,4,4,6833
240,6,2,1,8,4,10417
241,6,5,1,25,25,12500
242,6,3,1,7,7,15000
243,5,2,1,1,1,7756
244,5,4,1,17,17,7795
245,5,6,1,20,20,11667
246,6,4,1,21,21,7917
247,5,3,1,6,6,6399
248,6,3,1,7,7,10417
249,2,3,1,2,2,2722
250,6,2,1,3,3,5235
251,5,4,1,16,16,5579
252,5,4,1,12,12,6475
253,6,4,1,10,3,7554
254,6,4,1,16,16,4973
255,4,4,2,10,10,7998
256,6,4,1,15,15,9760
257,6,3,1,6,7,682
258,6,3,1,9,10,3020
259,1,3,1,5,6,40525
260,1,4,1,12,12,11250
261,5,3,1,5,5,5439
262,6,3,2,2,2,9167
263,6,3,1,7,10,6250
264,6,4,1,23,23,10000
265,5,4,1,17,17,4583
266,5,3,2,6,6,1946
267,5,4,2,11,10,14583
268,1,5,1,20,27,14333
269,6,2,1,4,4,33333
270,6,3,1,8,12,5167
271,6,2,1,1,1,1464
272,6,4,1,11,11,5776
273,6,2,1,2,2,6250
274,5,2,1,2,2,3455
275,6,3,1,5,5,10417
276,5,6,1,25,30,300000
277,6,3,1,7,7,9214
278,1,4,1,6,6,10000
279,7,4,1,25,25,9559
280,5,4,1,10,11,18750
281,6,2,1,5,5,8750
282,5,3,1,5,5,13750
283,6,3,1,5,7,7998
284,7,4,1,22,22,3732
285,6,3,1,8,8,13860
286,1,5,1,34,35,1101
287,4,3,0,10,9,3110
288,6,3,1,4,6,10000
289,6,3,1,3,3,8659
290,6,3,1,8,8,1505
291,6,3,1,9,9,10000
292,1,2,2,3,3,1184
293,6,2,1,4,4,6282
294,1,3,1,13,13,6665
295,1,5,1,10,20,14658
296,1,4,1,2,2,9583
297,6,3,1,2,2,5531
298,5,4,1,12,12,20833
299,6,3,1,6,6,13333
300,6,2,1,2,2,2364
301,6,4,1,12,10,13333
302,6,3,1,3,3,4659
303,1,4,1,13,13,7333
304,6,4,1,9,9,29167
305,1,3,1,6,6,2666
306,6,4,1,12,12,4763
307,6,3,1,6,8,11875
308,2,4,1,20,22,7329
309,5,5,1,27,27,9320
310,1,3,1,5,5,937
311,6,2,1,4,4,5003
312,1,4,1,6,7,14583
313,6,4,1,8,11,6474
314,8,4,1,7,7,8333
315,5,4,1,13,13,3632
316,5,2,1,1,1,4088
317,6,2,1,4,2,16667
318,6,3,1,10,10,11517
319,6,3,1,4,5,12500
320,2,3,1,12,13,100511
321,6,3,1,8,8,12250
322,6,3,1,5,8,1350
323,5,5,1,25,25,125000
324,5,4,1,20,20,39458
325,5,3,1,6,6,2010
326,6,3,1,10,10,12917
327,1,2,1,3,3,11250
328,6,3,1,9,9,422954
329,3,3,1,10,10,6298
330,6,3,1,4,4,5083
331,6,4,1,24,24,14833
332,1,5,1,26,30,150000
333,6,2,1,2,2,7417
334,6,4,1,13,23,15417
335,1,2,1,3,3,478
336,6,3,1,6,6,26667
337,6,3,2,3,3,8750
338,6,3,1,9,9,15181
339,5,3,1,6,10,806
340,6,3,1,6,6,6667
341,6,3,1,7,7,5758
342,2,2,1,1,1,10729
343,6,3,1,4,4,6667
344,7,2,1,3,3,3822
345,6,3,1,7,7,5332
346,1,2,1,4,4,14167
347,2,5,1,35,35,5485
348,6,3,1,8,8,6449
349,2,3,1,4,15,8333
350,6,4,1,10,15,8642
351,1,4,1,13,13,16667
352,6,2,1,2,2,13750
353,5,3,1,2,1,6453
354,6,4,1,10,10,3906
355,1,5,1,25,25,13611
356,5,4,1,23,16,9764
357,6,3,1,6,6,4299
358,6,3,1,10,10,10462
359,6,3,1,7,7,20833
360,1,4,1,14,14,2525
361,6,3,1,9,8,2827
362,6,3,1,18,10,2800
363,6,2,1,3,3,2659
364,7,4,1,9,10,6750
365,6,2,1,7,7,6667
366,6,2,1,2,2,3141
367,6,3,0,10,6,14583
368,1,3,1,4,4,4479
369,6,3,1,6,6,6932
370,6,4,1,12,12,6221
371,5,4,1,14,14,16250
372,0,4,1,23,16,13153
373,6,3,1,10,12,42657
374,6,3,1,5,5,13333
375,7,3,1,4,6,15083
376,5,4,1,4,8,7110
377,5,4,1,18,20,7678
378,1,3,1,9,9,15000
379,5,2,1,2,1,1122
380,6,4,1,8,10,19167
381,5,3,1,3,5,2382
382,6,3,1,7,7,43333
383,1,3,1,8,8,4464
384,6,4,1,21,21,13014
385,5,4,1,3,15,17000
386,5,3,1,6,8,9331
387,6,3,1,3,3,4652
388,6,2,1,3,3,7465
389,6,3,1,6,4,8890
390,5,3,1,7,8,19667
391,5,4,1,17,17,110000
392,6,3,1,5,5,9760
393,6,4,1,20,23,9333
394,6,3,1,11,11,7500
395,6,3,1,10,10,10208
396,5,3,1,4,4,2716
397,5,3,1,6,6,4342
398,6,5,1,25,25,19521
399,6,4,1,20,25,33333
400,1,4,1,15,15,54167
401,1,3,1,3,3,27275
402,6,3,1,7,8,14349
403,6,3,1,3,12,50193
404,5,2,1,3,3,7667
405,5,4,1,8,20,13698
406,5,3,1,4,4,37325
407,2,3,1,0.5,2,3750
408,6,2,1,2,2,1386
409,6,4,1,15,15,11713
410,6,4,1,10,10,2933
411,5,3,1,0.5,1,3664
412,2,2,2,2,2,4159
413,6,3,1,5,5,9423
414,6,3,1,1,6,9167
415,1,4,1,10,20,8333
416,6,3,1,5,14,7083
417,6,3,1,4,4,9423
418,6,3,1,8,10,13750
419,5,3,1,3,3,15000
420,1,3,1,5,5,2598
421,8,4,1,7,13,2701
422,1,4,1,22,22,10000
423,6,3,1,3,3,7083
424,1,3,1,12,12,20833
425,5,4,1,11,11,8333
426,7,4,1,18,18,5336
427,1,2,1,0.5,1,1504
428,5,5,1,22,22,6095
429,5,3,1,3,3,5374
430,6,4,1,18,18,23333
431,6,2,1,3,3,7750
432,5,3,1,3,3,5282
433,6,3,1,7,8,14167
434,5,2,1,6,6,9583
435,5,4,1,15,15,10417
436,6,4,1,7,7,8333
437,5,2,1,2,2,12583
438,1,4,1,8,12,5021
439,7,3,1,6,5,16667
440,6,3,1,7,7,13250
441,6,3,1,1,1,4502
442,6,2,1,3,3,11667
443,6,3,1,10,15,9583
444,6,4,1,9,19,4583
445,1,3,1,3,3,4266
446,4,3,1,2,2,18167
447,5,6,1,32,32,14167
448,6,3,1,10,10,12917
449,6,3,1,4,4,62777
450,1,2,1,0.5,1,1706
451,6,3,1,6,5,5799
452,6,3,1,7,7,11667
453,6,3,1,6,6,9152
454,6,3,1,4,4,5332
455,6,3,1,10,10,2509
456,6,2,1,1,1,604
457,5,4,1,12,12,5910
458,5,3,1,8,8,3999
459,6,3,1,5,5,12917
460,6,3,1,10,10,15000
461,5,3,1,7,6,3839
462,4,4,1,7,22,11387
463,0,4,1,7,8,15417
464,6,3,1,5,4,5500
465,5,3,1,2,2,3199
466,6,4,1,22,21,8915
467,6,4,1,12,12,6507
468,6,4,1,18,18,8784
469,2,3,1,10,10,9865
470,2,5,1,5,30,31993
471,6,2,1,2,2,25000
472,1,3,1,2,2,20250
473,6,2,1,3,3,2036
474,6,5,1,23,23,10164
475,6,4,1,19,18,10833
476,6,2,1,0.5,1,1827
477,6,3,1,9,10,5919
478,1,4,1,13,13,1315
479,6,2,1,0.5,1,3664
480,6,3,1,6,6,4583
481,1,4,1,10,11,8443
482,1,4,1,23,25,25000
483,6,2,1,2,2,2879
484,6,3,1,7,7,4888
485,4,3,1,7,12,13917
486,6,3,1,5,5,7200
487,6,3,1,3,3,936
488,6,2,1,3,3,6083
489,5,5,1,30,30,74651
490,6,3,1,2,2,4532
491,6,5,1,31,31,25417
492,1,3,1,10,10,13750
493,6,3,1,4,4,1503
494,6,2,1,1,1,696
495,6,3,1,0.5,0,7833
496,5,3,1,5,5,3463
497,6,3,0,4,4,10000
498,2,4,1,22,13,4977
499,1,5,1,29,30,26175
500,6,3,1,3,3,4444
501,5,4,1,8,8,7158
502,5,3,1,1,1,4753
503,5,2,1,2,3,4397
504,6,2,1,2,2,7167
505,5,4,1,11,11,10371
506,1,5,1,26,26,16250
507,1,2,1,3,3,16667
508,5,3,1,4,4,3093
509,6,3,1,3,3,1490
510,5,3,2,6,6,3110
511,6,3,1,4,4,33333
512,5,4,1,16,16,15417
513,6,2,1,2,2,2800
514,6,3,1,4,4,5421
515,5,3,1,15,15,5282
516,5,3,1,5,5,934
517,1,3,1,1,14,5417
518,5,3,0,4,4,3199
519,5,3,1,1,1,5000
520,6,3,1,2,3,12083
521,6,3,1,4,4,11446
522,6,4,1,12,12,15000
523,5,3,1,12,12,9417
524,1,3,1,6,6,5079
525,6,3,1,5,6,15417
526,6,3,1,10,9,87500
527,6,2,1,3,3,9167
528,5,4,1,10,10,6221
529,6,3,1,3,5,6719
530,6,3,1,7,7,2666
531,6,6,1,35,36,120000
532,6,3,1,5,5,9167
533,4,3,1,3,3,6507
534,2,2,1,1,1,1966
535,5,3,1,3,3,4088
536,6,3,1,3,3,8333
537,5,3,1,5,7,5332
538,6,3,1,10,10,4000
539,6,3,1,3,6,4571
540,6,4,1,10,10,5088
541,5,3,1,3,3,6914
542,6,3,1,7,7,8333
543,1,2,1,4,4,2666
544,1,3,1,11,13,8318
545,6,3,1,4,4,2635
546,5,3,1,8,8,5510
547,5,3,1,7,7,5079
548,5,2,1,2,2,916667
549,6,3,1,4,6,5973
550,5,3,1,2,3,5510
551,4,4,1,12,14,2666
552,6,3,1,4,4,3224
553,5,2,1,1,2,3555
554,6,3,1,6,7,2312
555,6,3,1,10,10,63986
556,6,3,1,8,8,33333
557,4,3,1,4,10,9167
558,6,3,1,9,9,9583
559,5,3,0,10,9,13667
560,4,4,1,15,20,16547
561,8,2,0,0.5,1,1685
562,5,3,1,10,10,5210
563,6,4,1,12,13,18500
564,5,4,1,15,15,29167
565,6,4,1,23,23,83333
566,6,3,1,3,4,7500
567,7,3,1,13,13,78916
568,1,3,1,11,11,5332
569,6,5,1,23,23,8750
570,6,3,1,0.5,1,5417
571,5,3,1,3,3,13750
572,6,2,2,0.5,1,6167
573,6,3,0,8,8,2901
574,5,3,1,3,3,5066
575,6,3,1,6,5,11359
576,6,3,1,5,6,22774
577,6,3,1,10,10,12583
578,6,2,2,0.5,1,2722
579,3,3,1,11,11,7820
580,5,4,1,10,10,13333
581,1,4,1,9,9,2737
582,6,3,1,10,10,20940
583,5,3,1,2,2,4692
584,1,2,1,1,2,31410
585,6,3,1,4,4,13625
586,5,4,1,20,20,7643
587,7,2,1,0.5,1,2773
588,6,2,1,0.5,1,432
589,5,3,1,4,4,2207
590,5,3,1,9,11,17250
591,5,3,1,8,8,3839
592,6,4,1,14,13,14583
593,5,6,1,20,25,12066
594,6,2,1,5,5,3686
595,5,5,1,21,25,3627
596,1,2,1,3,4,5417
597,6,5,1,27,27,9483
598,6,4,1,11,11,10833
599,5,4,1,17,17,5119
600,6,3,1,10,10,33333
601,5,4,1,17,18,8517
602,5,3,1,8,8,1559
603,6,4,0,18,18,8585
604,5,4,1,12,12,5776
605,6,3,1,2,3,5167
606,5,3,1,10,10,6263
607,6,3,1,5,5,5856
608,6,5,1,15,15,5667
609,4,5,1,23,15,140000
610,1,3,1,6,6,7313
611,5,3,1,7,4,6665
612,5,3,1,2,2,4906
613,6,4,1,15,15,9250
614,6,2,1,4,4,16667
615,4,3,1,0.5,1,4397
616,6,3,1,7,7,4586
617,6,3,1,6,6,960
618,2,3,1,5,8,5201
619,6,4,1,10,24,5833
620,6,4,1,17,17,4314
621,6,3,1,5,5,10000
622,1,3,2,7,7,5332
623,6,3,1,4,4,7694
624,5,4,1,12,12,130000
625,5,6,1,42,42,15000
626,6,3,1,3,3,5206
627,6,4,1,15,15,8210
628,4,3,1,7,7,5288
629,5,3,2,2,2,3041
630,5,4,1,6,6,14750
631,6,2,1,4,4,5449
632,6,3,0,10,10,13750
633,5,4,1,11,11,12666
634,5,4,1,11,11,99179
635,1,6,1,38,38,8750
636,5,2,1,1,1,9167
637,7,3,1,5,5,5776
638,6,3,1,13,13,6083
639,5,3,1,10,10,7902
640,5,3,1,4,4,5865
641,5,3,1,2,2,1253
642,7,3,1,3,3,1264
643,1,3,1,6,10,2257
644,6,3,2,14,14,18750
645,6,3,1,3,3,3824
646,5,6,1,35,35,12667
647,6,3,1,3,4,5694
648,6,3,1,5,5,4880
649,6,2,1,2,2,8250
650,6,3,1,10,10,666667
651,6,2,1,4,4,2790
652,6,5,1,32,36,21667
653,6,3,1,6,10,6282
654,6,2,1,3,3,4266
655,6,2,1,3,4,5500
656,6,4,2,9,9,9625
657,1,4,1,15,17,16268
658,1,4,1,10,10,12500
659,6,2,1,1,2,7725
660,1,3,1,5,5,4083
661,4,4,1,11,11,4816
662,6,3,1,7,7,10833
663,6,2,1,1,1,5000
664,6,5,1,25,25,115800
665,6,2,1,0.5,1,3732
666,6,3,1,5,6,15833
667,6,3,1,8,10,8000
668,1,3,1,6,8,6603
669,6,3,1,10,10,11359
670,6,3,1,6,8,7110
671,6,3,1,4,4,9583
672,6,3,1,12,12,10000
673,6,3,1,3,3,6000
674,2,3,1,1,9,6833
675,6,3,1,11,11,5374
676,1,3,0,4,4,3733
677,5,4,1,9,9,6073
678,6,4,1,5,6,11258
679,6,3,1,8,12,264792
680,6,3,1,6,6,5911
681,6,3,0,6,6,8833
682,6,3,1,9,5,11250
683,6,2,1,3,3,2755
684,6,2,1,4,4,8917
685,6,3,1,7,7,11000
686,4,3,1,7,7,783000
687,6,3,1,3,3,10833
688,5,3,1,9,9,6719
689,6,5,1,30,29,18333
690,5,3,1,10,10,20833
691,6,3,1,1,1,6667
692,6,4,1,12,12,19167
693,1,3,1,9,9,6095
694,4,4,1,4,11,4188
695,1,4,1,23,23,6576
696,5,3,1,9,9,4266
697,6,3,1,3,3,5195
698,6,3,1,4,4,5067
699,5,5,2,11,20,10500
700,6,3,1,7,8,2879
701,6,2,1,5,5,15705
702,6,4,1,4,22,7820
703,7,5,1,20,25,9583
704,6,4,1,1,8,79667
705,6,0,1,6,7,9167
706,5,4,1,10,10,5206
707,6,3,1,5,5,9500
708,6,4,1,12,13,6806
709,5,3,1,1,1,1600
710,5,5,1,25,30,4163
711,6,5,1,21,25,11204
712,1,3,1,5,5,17500
713,5,3,1,4,4,8443
714,6,3,0,9,9,6932
715,2,3,1,15,15,7465
716,5,5,1,17,17,5332
717,5,3,1,3,3,6665
718,6,3,1,3,3,15583
719,6,4,1,18,18,10748
720,1,4,1,20,20,13750
721,6,3,1,10,12,41667
722,6,3,1,5,5,5319
723,6,3,2,4,4,5856
724,5,4,1,5,5,4621
725,2,3,1,7,7,5332
726,6,3,1,5,5,4014
727,5,3,1,5,3,7170
728,5,3,1,3,4,750000
729,6,5,1,20,20,145833
730,2,3,1,4,6,109306
731,1,3,1,10,10,5332
732,6,2,1,0.5,2,1706
733,6,3,1,9,8,5319
734,5,3,0,4,4,3248
735,6,4,1,17,17,12038
736,6,3,1,1,1,7417
737,5,3,1,6,6,12500
738,8,4,1,15,10,8000
739,5,4,1,20,19,2790
740,6,4,1,17,17,8176
741,6,2,1,1,1,16667
742,2,2,1,2,2,1178
743,7,3,1,7,11,7500
744,5,4,1,11,11,3869
745,6,3,1,3,3,292817
746,6,3,1,10,11,20940
747,5,3,1,10,10,11109
748,8,2,1,2,2,3519
749,6,3,1,5,5,10833
750,6,3,1,3,3,3199
751,6,2,1,3,4,106644
752,6,3,1,5,5,9092
753,5,4,1,20,20,16750
754,6,3,1,3,4,11667
755,6,3,1,3,4,4266
756,6,3,1,8,9,20000
757,6,3,1,3,3,7167
758,6,3,1,4,6,8750
759,6,3,1,5,5,8890
760,1,4,1,17,17,1392
761,5,4,1,13,13,5776
762,5,5,1,16,22,5759
763,8,3,1,5,5,5617
764,5,3,1,2,3,11060
765,6,4,1,14,14,4169
766,5,5,1,26,31,7538
767,6,3,1,0.5,1,2199
768,6,3,2,4,4,16918
769,6,3,1,9,9,6938
770,1,5,1,26,25,7015
771,5,3,1,3,3,12500
772,6,2,1,2,2,4132
773,6,3,1,9,9,2844
774,1,3,1,13,13,12564
775,1,3,1,8,8,7917
776,6,3,1,6,6,12500
777,6,3,0,6,6,3594
778,6,3,1,5,5,6667
779,6,3,1,6,6,5897
780,6,5,1,25,25,11667
781,6,4,1,23,23,10000
782,5,3,1,8,6,85315
783,5,3,1,1,1,4876
784,6,3,1,10,10,6282
785,5,3,1,4,5,25000
786,6,4,1,16,16,33333
787,5,3,1,8,8,24667
788,5,3,1,5,6,4799
789,6,3,1,4,4,4293
790,6,3,2,8,8,11250
791,7,4,1,10,13,1039
792,5,3,1,3,3,7522
793,6,3,1,5,5,4888
794,6,3,1,3,3,15417
795,5,3,1,4,4,11250
796,7,4,1,1,1,3555
797,1,3,1,3,3,7473
798,1,4,1,8,20,6282
799,6,4,1,12,12,25000
800,5,3,1,2,2,6166
801,6,2,1,3,1,7917
802,6,3,1,4,4,6701
803,6,5,1,19,19,14349
804,6,2,1,1,1,14167
805,5,3,1,7,7,3732
806,1,4,1,22,22,25000
807,6,3,1,9,10,14167
808,5,4,1,16,16,3093
809,1,2,0,5,5,10000
810,6,3,1,6,6,6910
811,5,3,1,2,2,3022
812,5,4,1,10,12,4444
813,5,4,1,10,10,14315
814,4,4,1,20,20,9331
815,6,3,1,2,2,6667
816,6,2,1,10,10,16667
817,6,3,1,11,11,2451
818,1,3,1,3,3,8250
819,8,5,1,32,33,15000
820,6,3,1,10,10,86000
821,5,3,1,6,6,35726
822,6,3,1,7,7,3199
823,6,3,1,3,3,12917
824,6,5,1,32,32,18750
825,6,2,1,0.5,1,6500
826,5,3,1,5,5,2666
827,3,2,1,7,7,9583
828,5,5,1,27,27,8265
829,6,3,1,4,4,50256
830,2,2,1,3,3,3167
831,7,4,1,19,19,16667
832,6,5,1,21,25,6006
833,6,2,1,2,2,5206
834,5,2,1,1,1,59050
835,5,3,1,5,5,5206
836,6,5,1,25,25,10833
837,6,2,1,2,2,11667
838,5,3,1,6,6,5152
839,1,2,2,2,3,2500
840,5,3,1,4,4,7198
841,2,3,1,8,8,5074
842,6,3,1,3,2,5421
843,6,4,1,13,12,13750
844,5,3,1,8,10,7998
845,5,3,1,7,15,6282
846,6,3,1,1,1,3732
847,6,2,1,2,1,8133
848,6,2,1,5,5,15667
849,5,3,1,6,6,12083
850,6,5,1,28,28,14167
851,6,3,1,10,10,10000
852,6,2,1,2,2,3750
853,4,3,1,9,9,8168
854,6,2,1,2,2,3732
855,6,4,2,3,4,5833
856,1,3,1,5,5,2251
857,5,4,1,4,20,77779
858,5,3,1,6,6,3199
859,5,6,1,25,25,17083
860,6,3,1,6,6,10411
861,6,4,1,13,12,10993
862,6,3,1,6,12,7500
863,7,3,1,8,8,5235
864,2,3,1,6,7,4330
865,4,3,1,15,15,6433
866,1,3,1,6,7,8333
867,6,3,1,4,4,7500
868,0,2,1,5,5,4710
869,7,2,1,4,4,16667
870,5,3,1,3,3,4266
871,5,3,2,4,4,5617
872,6,3,1,2,2,6221
873,5,3,1,10,10,7000
874,1,3,1,7,7,4052
875,6,3,1,9,10,10833
876,6,3,1,5,5,8333
877,6,3,1,4,4,1294
878,1,3,1,0.5,3,4541
879,6,3,1,8,8,8887
880,6,3,1,6,12,4104
881,5,3,1,2,2,7465
882,6,4,1,19,19,383342
883,6,4,1,15,15,20822
884,6,4,1,15,15,93335
885,6,3,1,6,6,112000
886,5,3,1,3,3,68
887,6,3,1,10,10,3116
888,6,4,0,4,7,6000
889,5,4,1,16,16,6399
890,1,4,1,12,19,10000
891,5,3,1,4,7,52
892,3,2,1,1,3,7500
893,1,4,1,18,18,9776
894,6,4,1,18,22,6932
895,5,4,2,4,10,9167
896,6,5,1,15,19,9065
897,6,2,1,0.5,0,1966
898,6,5,1,14,14,13417
899,2,2,1,1,1,8500
900,5,3,1,7,7,10833
901,6,3,1,3,3,11750
902,1,3,1,14,12,2453
903,6,2,1,0.5,1,1047
904,6,3,1,4,4,3110
905,5,3,1,3,3,6754
906,8,2,1,1,1,2311
907,6,3,1,5,7,5442
908,6,2,1,3,5,292817
909,8,3,1,1,1,1333
910,5,3,1,8,8,4394
911,5,3,1,3,4,10773
912,6,3,1,8,8,11667
913,1,3,1,10,15,12189
914,6,2,1,1,1,7000
915,6,3,1,7,11,5856
916,3,2,1,1,1,9167
917,1,3,1,10,10,4177
918,6,2,1,0.5,1,4962
919,3,2,1,6,6,10462
920,6,2,1,4,4,3469
921,5,5,0,10,15,908
922,6,6,1,35,35,223952
923,6,2,1,1,1,5833
924,7,3,1,0.5,1,4880
925,1,3,1,4,4,1850
926,7,3,1,6,6,10000
927,5,3,1,2,3,4973
928,5,3,1,5,5,3999
929,6,3,1,4,7,4128
930,6,3,1,4,4,7333
931,1,2,1,6,6,2908
932,6,2,1,2,2,6167
933,5,3,1,5,5,4502
934,4,3,1,8,10,7957
935,1,4,1,18,18,4444
936,5,3,0,3,4,7110
937,6,2,1,2,2,6666
938,1,5,1,25,25,13333
939,1,3,1,7,8,4888
940,2,2,1,6,6,29167
941,6,3,1,6,6,2800
942,5,3,1,4,4,5599
943,6,3,1,5,5,3816
944,6,2,1,1,1,7917
945,6,3,1,10,9,4266
946,6,4,1,15,15,7224
947,6,3,1,7,7,9776
948,6,3,1,8,12,11250
949,6,3,1,5,5,4063
950,6,2,1,2,2,390
951,6,3,0,3,3,2986
952,5,3,1,6,6,5629
953,6,3,0,4,4,65000
954,3,3,1,2,3,3251
955,6,4,1,14,14,15000
956,6,2,1,2,8,5417
957,6,3,1,3,3,6231
958,6,3,1,12,12,7538
959,6,2,1,4,4,6843
960,6,4,1,22,25,14744
961,6,3,2,7,7,9583
962,1,2,1,3,3,416667
963,6,4,1,14,15,16667
964,5,5,1,27,27,7083
965,6,3,1,6,6,6134
966,6,3,1,8,8,5898
967,6,4,1,1,1,5235
968,2,3,1,6,6,1734
969,6,4,1,21,24,10000
970,6,4,1,22,22,14349
971,1,3,1,12,13,5332
972,6,3,1,11,11,12917
973,5,2,1,3,1,2250
974,6,5,1,27,31,10616
975,2,4,0,15,15,30363
976,2,5,1,24,29,10000
977,6,3,1,5,9,10220
978,6,3,1,14,14,6910
979,4,3,1,3,7,2666
980,6,3,1,5,6,5833
981,6,2,2,9,9,7852
982,1,3,2,8,12,16042
983,6,3,1,9,15,25000
984,6,3,1,4,4,14667
985,1,3,1,10,15,4444
986,6,3,1,6,6,12256
987,6,4,1,15,15,17774
988,5,3,1,4,4,2600
989,6,4,1,12,20,416667
990,6,3,1,12,12,10026
991,6,5,1,23,23,8887
992,6,3,1,10,10,3487
993,6,3,2,1,1,9750
994,5,3,1,5,5,6833
995,5,2,1,0.5,1,1204
996,1,4,1,20,20,5332
997,6,3,2,6,6,63986
